VBTech/FIFO/FIFO.sim/sim_1/behav/xsim/simulate.log
Vivado Simulator 2019.2
Time resolution is 1 ps
----------------------------------------------
------------------   -----------------------
----------- SIMULATION RESULT ----------------
--------------       -------------------
----------------     ---------------------
----------------------------------------------
TIME =                    0, Read = 0, Write = 0, In = 00
TIME =                    9, Read = 0, Write = 1, In = 24
TIME =                   16, Read = 0, Write = 1, In = 81
TIME =                   20, Read = 0, Write = 1, In = 09
TIME =                   23, Read = 0, Write = 1, In = 63
TIME =                   30, Read = 0, Write = 1, In = 0d
TIME =                   34, Read = 0, Write = 1, In = 8d
TIME =                   37, Read = 0, Write = 1, In = 65
TIME =                   44, Read = 0, Write = 1, In = 12
TIME =                   47, Read = 0, Write = 1, In = 01
TIME =                   52, Read = 0, Write = 1, In = 0d
TIME =                   54, Read = 0, Write = 1, In = 76
TIME =                   61, Read = 0, Write = 1, In = 3d
TIME =                   64, Read = 1, Write = 0, In = 3d
TIME =                   85, Read = 0, Write = 1, In = ed
TIME =                   86, Read = 0, Write = 1, In = 8c
TIME =                   91, Read = 0, Write = 1, In = f9
TIME =                   92, Read = 0, Write = 1, In = c6
TIME =                   96, Read = 1, Write = 0, In = c6
TIME =                  131, Read = 0, Write = 0, In = c6
TIME =                  146, Read = 0, Write = 1, In = c5
TIME =                  151, Read = 0, Write = 1, In = aa
TIME =                  157, Read = 0, Write = 1, In = e5
TIME =                  163, Read = 0, Write = 1, In = 77
TIME =                  171, Read = 1, Write = 0, In = 77
TIME =                  192, Read = 0, Write = 0, In = 77
TIME =                  195, Read = 0, Write = 1, In = 77
TIME =                  199, Read = 0, Write = 0, In = 77
TIME =                  205, Read = 0, Write = 0, In = 12
TIME =                  206, Read = 0, Write = 1, In = 12
TIME =                  208, Read = 0, Write = 0, In = 12
TIME =                  212, Read = 0, Write = 0, In = 8f
TIME =                  215, Read = 0, Write = 1, In = 8f
TIME =                  218, Read = 0, Write = 0, In = 8f
TIME =                  223, Read = 0, Write = 0, In = f2
TIME =                  226, Read = 0, Write = 1, In = f2
TIME =                  227, Read = 0, Write = 0, In = f2
TIME =                  236, Read = 0, Write = 0, In = ce
TIME =                  237, Read = 0, Write = 1, In = ce
TIME =                  239, Read = 0, Write = 0, In = ce
TIME =                  244, Read = 0, Write = 0, In = e8
TIME =                  248, Read = 0, Write = 1, In = e8
TIME =                  251, Read = 0, Write = 0, In = e8
TIME =                  258, Read = 0, Write = 0, In = c5
TIME =                  262, Read = 0, Write = 1, In = c5
TIME =                  265, Read = 0, Write = 0, In = c5
TIME =                  272, Read = 0, Write = 0, In = 5c
TIME =                  274, Read = 0, Write = 1, In = 5c
TIME =                  278, Read = 0, Write = 0, In = 5c
TIME =                  281, Read = 0, Write = 0, In = bd
TIME =                  283, Read = 0, Write = 1, In = bd
TIME =                  288, Read = 0, Write = 0, In = bd
TIME =                  295, Read = 0, Write = 0, In = 2d
TIME =                  299, Read = 0, Write = 1, In = 2d
TIME =                  302, Read = 0, Write = 0, In = 2d
TIME =                  306, Read = 0, Write = 0, In = 65
TIME =                  309, Read = 0, Write = 1, In = 65
TIME =                  311, Read = 0, Write = 0, In = 65
TIME =                  314, Read = 0, Write = 0, In = 63
TIME =                  317, Read = 0, Write = 1, In = 63
TIME =                  318, Read = 0, Write = 0, In = 63
TIME =                  325, Read = 0, Write = 0, In = 0a
TIME =                  332, Read = 1, Write = 0, In = 0a
TIME =                  337, Read = 0, Write = 0, In = 0a
TIME =                  339, Read = 1, Write = 0, In = 0a
TIME =                  341, Read = 0, Write = 0, In = 0a
TIME =                  345, Read = 1, Write = 0, In = 0a
TIME =                  349, Read = 0, Write = 0, In = 0a
TIME =                  356, Read = 1, Write = 0, In = 0a
TIME =                  358, Read = 0, Write = 0, In = 0a
TIME =                  363, Read = 1, Write = 0, In = 0a
TIME =                  366, Read = 0, Write = 0, In = 0a
TIME =                  373, Read = 1, Write = 0, In = 0a
TIME =                  376, Read = 0, Write = 0, In = 0a
TIME =                  383, Read = 1, Write = 0, In = 0a
TIME =                  387, Read = 0, Write = 0, In = 0a
TIME =                  393, Read = 1, Write = 0, In = 0a
TIME =                  394, Read = 0, Write = 0, In = 0a
TIME =                  401, Read = 1, Write = 0, In = 0a
TIME =                  405, Read = 0, Write = 0, In = 0a
TIME =                  408, Read = 1, Write = 0, In = 0a
TIME =                  412, Read = 0, Write = 0, In = 0a
TIME =                  418, Read = 1, Write = 0, In = 0a
TIME =                  419, Read = 0, Write = 0, In = 0a
TIME =                  425, Read = 1, Write = 0, In = 0a
TIME =                  426, Read = 0, Write = 0, In = 0a
-------------- THE SIMUALTION FINISHED ------------
$finish called at time : 5 ns : File "D:/GitHub/VBTech/VBTech/FIFO/FIFO.srcs/sim_1/new/testbench.v" Line 189
