VBTech/FIFO/FIFO.sim/sim_1/behav/xsim/simulate.log
Vivado Simulator 2019.2
Time resolution is 1 ps
----------------------------------------------
------------------   -----------------------
----------- SIMULATION RESULT ----------------
--------------       -------------------
----------------     ---------------------
----------------------------------------------
TIME =                    0, Read = 0, Write = 0, In = 00
TIME =                    6, Read = 0, Write = 1, In = 24
TIME =                    9, Read = 0, Write = 1, In = 81
TIME =                   16, Read = 0, Write = 1, In = 09
TIME =                   20, Read = 0, Write = 1, In = 63
TIME =                   23, Read = 0, Write = 1, In = 0d
TIME =                   30, Read = 0, Write = 1, In = 8d
TIME =                   34, Read = 0, Write = 1, In = 65
TIME =                   37, Read = 0, Write = 1, In = 12
TIME =                   44, Read = 0, Write = 1, In = 01
TIME =                   47, Read = 0, Write = 1, In = 0d
TIME =                   53, Read = 1, Write = 0, In = 0d
TIME =                   89, Read = 0, Write = 0, In = 0d
TIME =                   97, Read = 0, Write = 1, In = 76
TIME =                  100, Read = 0, Write = 1, In = 3d
TIME =                  101, Read = 0, Write = 1, In = ed
TIME =                  108, Read = 1, Write = 0, In = ed
TIME =                  124, Read = 0, Write = 0, In = ed
TIME =                  128, Read = 0, Write = 1, In = ed
TIME =                  129, Read = 0, Write = 0, In = ed
TIME =                  133, Read = 0, Write = 0, In = 8c
TIME =                  138, Read = 0, Write = 1, In = 8c
TIME =                  142, Read = 0, Write = 0, In = 8c
TIME =                  146, Read = 0, Write = 0, In = f9
TIME =                  147, Read = 0, Write = 1, In = f9
TIME =                  150, Read = 0, Write = 0, In = f9
TIME =                  159, Read = 0, Write = 0, In = c6
TIME =                  160, Read = 0, Write = 1, In = c6
TIME =                  164, Read = 0, Write = 0, In = c6
TIME =                  170, Read = 0, Write = 0, In = c5
TIME =                  174, Read = 0, Write = 1, In = c5
TIME =                  178, Read = 0, Write = 0, In = c5
TIME =                  181, Read = 0, Write = 0, In = aa
TIME =                  182, Read = 0, Write = 1, In = aa
TIME =                  184, Read = 0, Write = 0, In = aa
TIME =                  189, Read = 0, Write = 0, In = e5
TIME =                  192, Read = 0, Write = 1, In = e5
TIME =                  195, Read = 0, Write = 0, In = e5
TIME =                  201, Read = 0, Write = 0, In = 77
TIME =                  202, Read = 0, Write = 1, In = 77
TIME =                  206, Read = 0, Write = 0, In = 77
TIME =                  212, Read = 0, Write = 0, In = 12
TIME =                  213, Read = 0, Write = 1, In = 12
TIME =                  216, Read = 0, Write = 0, In = 12
TIME =                  223, Read = 0, Write = 0, In = 8f
TIME =                  226, Read = 0, Write = 1, In = 8f
TIME =                  229, Read = 0, Write = 0, In = 8f
TIME =                  237, Read = 0, Write = 0, In = f2
TIME =                  244, Read = 1, Write = 0, In = f2
TIME =                  248, Read = 0, Write = 0, In = f2
TIME =                  254, Read = 1, Write = 0, In = f2
TIME =                  255, Read = 0, Write = 0, In = f2
TIME =                  259, Read = 1, Write = 0, In = f2
TIME =                  264, Read = 0, Write = 0, In = f2
TIME =                  271, Read = 1, Write = 0, In = f2
TIME =                  275, Read = 0, Write = 0, In = f2
TIME =                  280, Read = 1, Write = 0, In = f2
TIME =                  282, Read = 0, Write = 0, In = f2
TIME =                  287, Read = 1, Write = 0, In = f2
TIME =                  289, Read = 0, Write = 0, In = f2
TIME =                  293, Read = 1, Write = 0, In = f2
TIME =                  294, Read = 0, Write = 0, In = f2
TIME =                  301, Read = 1, Write = 0, In = f2
TIME =                  306, Read = 0, Write = 0, In = f2
TIME =                  313, Read = 1, Write = 0, In = f2
TIME =                  314, Read = 0, Write = 0, In = f2
TIME =                  317, Read = 1, Write = 0, In = f2
TIME =                  318, Read = 0, Write = 0, In = f2
-------------- THE SIMUALTION FINISHED ------------
$finish called at time : 5 ns : File "D:/GitHub/VBTech/VBTech/FIFO/FIFO.srcs/sim_1/new/testbench.v" Line 146
