VBTech/FIFO_2clock/FIFO_2clock.sim/sim_1/behav/xsim/simulate.log
Vivado Simulator 2019.2
Time resolution is 1 ps
----------------------------------------------
------------------   -----------------------
----------- SIMULATION RESULT ----------------
--------------       -------------------
----------------     ---------------------
----------------------------------------------
TIME =                    0, Read = 0, Write = 0, In = 00
TIME =                   13, Read = 0, Write = 1, In = 24
TIME =                   19, Read = 0, Write = 1, In = 81
TIME =                   21, Read = 0, Write = 1, In = 09
TIME =                   28, Read = 0, Write = 1, In = 63
TIME =                   30, Read = 0, Write = 1, In = 0d
TIME =                   36, Read = 0, Write = 1, In = 8d
TIME =                   37, Read = 0, Write = 1, In = 65
TIME =                   43, Read = 0, Write = 1, In = 12
TIME =                   44, Read = 0, Write = 1, In = 01
TIME =                   47, Read = 0, Write = 1, In = 0d
TIME =                   50, Read = 0, Write = 1, In = 76
TIME =                   54, Read = 0, Write = 1, In = 3d
TIME =                   58, Read = 0, Write = 1, In = ed
TIME =                   61, Read = 1, Write = 0, In = ed
TIME =                   78, Read = 0, Write = 1, In = 8c
TIME =                   80, Read = 0, Write = 1, In = f9
TIME =                   82, Read = 0, Write = 1, In = c6
TIME =                   83, Read = 0, Write = 1, In = c5
TIME =                   90, Read = 0, Write = 1, In = aa
TIME =                   97, Read = 0, Write = 1, In = e5
TIME =                  102, Read = 0, Write = 1, In = 77
TIME =                  109, Read = 1, Write = 0, In = 77
TIME =                  152, Read = 0, Write = 0, In = 77
TIME =                  162, Read = 0, Write = 1, In = 12
TIME =                  166, Read = 0, Write = 1, In = 8f
TIME =                  171, Read = 0, Write = 1, In = f2
TIME =                  175, Read = 0, Write = 1, In = ce
TIME =                  178, Read = 0, Write = 1, In = e8
TIME =                  185, Read = 0, Write = 1, In = c5
TIME =                  186, Read = 0, Write = 1, In = 5c
TIME =                  195, Read = 1, Write = 0, In = 5c
TIME =                  256, Read = 0, Write = 0, In = 5c
TIME =                  259, Read = 0, Write = 1, In = 5c
TIME =                  263, Read = 0, Write = 0, In = 5c
TIME =                  268, Read = 0, Write = 0, In = bd
TIME =                  273, Read = 0, Write = 1, In = bd
TIME =                  277, Read = 0, Write = 0, In = bd
TIME =                  285, Read = 0, Write = 0, In = 2d
TIME =                  287, Read = 0, Write = 1, In = 2d
TIME =                  288, Read = 0, Write = 0, In = 2d
TIME =                  291, Read = 0, Write = 0, In = 65
TIME =                  292, Read = 0, Write = 1, In = 65
TIME =                  296, Read = 0, Write = 0, In = 65
TIME =                  302, Read = 0, Write = 0, In = 63
TIME =                  303, Read = 0, Write = 1, In = 63
TIME =                  305, Read = 0, Write = 0, In = 63
TIME =                  310, Read = 0, Write = 0, In = 0a
TIME =                  315, Read = 0, Write = 1, In = 0a
TIME =                  317, Read = 0, Write = 0, In = 0a
TIME =                  324, Read = 0, Write = 0, In = 80
TIME =                  327, Read = 0, Write = 1, In = 80
TIME =                  330, Read = 0, Write = 0, In = 80
TIME =                  336, Read = 0, Write = 0, In = 20
TIME =                  338, Read = 0, Write = 1, In = 20
TIME =                  340, Read = 0, Write = 0, In = 20
TIME =                  347, Read = 0, Write = 0, In = aa
TIME =                  350, Read = 0, Write = 1, In = aa
TIME =                  354, Read = 0, Write = 0, In = aa
TIME =                  358, Read = 0, Write = 0, In = 9d
TIME =                  361, Read = 0, Write = 1, In = 9d
TIME =                  365, Read = 0, Write = 0, In = 9d
TIME =                  371, Read = 0, Write = 0, In = 96
TIME =                  372, Read = 0, Write = 1, In = 96
TIME =                  376, Read = 0, Write = 0, In = 96
TIME =                  380, Read = 0, Write = 0, In = 13
TIME =                  382, Read = 0, Write = 1, In = 13
TIME =                  386, Read = 0, Write = 0, In = 13
TIME =                  393, Read = 0, Write = 0, In = 0d
TIME =                  397, Read = 0, Write = 1, In = 0d
TIME =                  400, Read = 0, Write = 0, In = 0d
TIME =                  406, Read = 0, Write = 0, In = 53
TIME =                  411, Read = 1, Write = 0, In = 53
TIME =                  413, Read = 0, Write = 0, In = 53
TIME =                  418, Read = 1, Write = 0, In = 53
TIME =                  421, Read = 0, Write = 0, In = 53
TIME =                  427, Read = 1, Write = 0, In = 53
TIME =                  428, Read = 0, Write = 0, In = 53
TIME =                  436, Read = 1, Write = 0, In = 53
TIME =                  441, Read = 0, Write = 0, In = 53
TIME =                  446, Read = 1, Write = 0, In = 53
TIME =                  449, Read = 0, Write = 0, In = 53
TIME =                  453, Read = 1, Write = 0, In = 53
TIME =                  455, Read = 0, Write = 0, In = 53
TIME =                  462, Read = 1, Write = 0, In = 53
TIME =                  466, Read = 0, Write = 0, In = 53
TIME =                  471, Read = 1, Write = 0, In = 53
TIME =                  476, Read = 0, Write = 0, In = 53
TIME =                  484, Read = 1, Write = 0, In = 53
TIME =                  488, Read = 0, Write = 0, In = 53
TIME =                  494, Read = 1, Write = 0, In = 53
TIME =                  495, Read = 0, Write = 0, In = 53
TIME =                  498, Read = 1, Write = 0, In = 53
-------------- THE SIMUALTION FINISHED ------------
$finish called at time : 5 ns : File "D:/GitHub/VBTech/VBTech/FIFO_2clock/FIFO_2clock.srcs/sim_1/new/testbench.v" Line 223
