VBTech/FIFO_2clock/FIFO_2clock.sim/sim_1/behav/xsim/simulate.log
Vivado Simulator 2019.2
Time resolution is 1 ps
----------------------------------------------
------------------   -----------------------
----------- SIMULATION RESULT ----------------
--------------       -------------------
----------------     ---------------------
----------------------------------------------
TIME =                    0, Read = 0, Write = 0, In = 00
TIME =                    6, Read = 0, Write = 1, In = 24
TIME =                    7, Read = 0, Write = 1, In = 81
TIME =                   13, Read = 0, Write = 1, In = 09
TIME =                   14, Read = 0, Write = 1, In = 63
TIME =                   18, Read = 0, Write = 1, In = 0d
TIME =                   21, Read = 0, Write = 1, In = 8d
TIME =                   27, Read = 0, Write = 1, In = 65
TIME =                   30, Read = 0, Write = 1, In = 12
TIME =                   35, Read = 0, Write = 1, In = 01
TIME =                   37, Read = 0, Write = 1, In = 0d
TIME =                   44, Read = 1, Write = 0, In = 0d
TIME =                   85, Read = 0, Write = 0, In = 0d
TIME =                   94, Read = 0, Write = 1, In = 76
TIME =                   96, Read = 0, Write = 1, In = 3d
TIME =                   99, Read = 0, Write = 1, In = ed
TIME =                  103, Read = 1, Write = 0, In = ed
TIME =                  145, Read = 0, Write = 0, In = ed
TIME =                  146, Read = 0, Write = 1, In = ed
TIME =                  150, Read = 0, Write = 0, In = ed
TIME =                  156, Read = 0, Write = 0, In = 8c
TIME =                  157, Read = 0, Write = 1, In = 8c
TIME =                  160, Read = 0, Write = 0, In = 8c
TIME =                  167, Read = 0, Write = 0, In = f9
TIME =                  168, Read = 0, Write = 1, In = f9
TIME =                  170, Read = 0, Write = 0, In = f9
TIME =                  178, Read = 0, Write = 0, In = c6
TIME =                  182, Read = 0, Write = 1, In = c6
TIME =                  184, Read = 0, Write = 0, In = c6
TIME =                  191, Read = 0, Write = 0, In = c5
TIME =                  195, Read = 0, Write = 1, In = c5
TIME =                  196, Read = 0, Write = 0, In = c5
TIME =                  203, Read = 0, Write = 0, In = aa
TIME =                  205, Read = 0, Write = 1, In = aa
TIME =                  209, Read = 0, Write = 0, In = aa
TIME =                  216, Read = 0, Write = 0, In = e5
TIME =                  220, Read = 0, Write = 1, In = e5
TIME =                  222, Read = 0, Write = 0, In = e5
TIME =                  226, Read = 0, Write = 0, In = 77
TIME =                  227, Read = 0, Write = 1, In = 77
TIME =                  229, Read = 0, Write = 0, In = 77
TIME =                  233, Read = 0, Write = 0, In = 12
TIME =                  234, Read = 0, Write = 1, In = 12
TIME =                  238, Read = 0, Write = 0, In = 12
TIME =                  245, Read = 0, Write = 0, In = 8f
TIME =                  250, Read = 0, Write = 1, In = 8f
TIME =                  254, Read = 0, Write = 0, In = 8f
TIME =                  259, Read = 0, Write = 0, In = f2
TIME =                  265, Read = 1, Write = 0, In = f2
TIME =                  268, Read = 0, Write = 0, In = f2
TIME =                  271, Read = 1, Write = 0, In = f2
TIME =                  273, Read = 0, Write = 0, In = f2
TIME =                  282, Read = 1, Write = 0, In = f2
TIME =                  286, Read = 0, Write = 0, In = f2
TIME =                  292, Read = 1, Write = 0, In = f2
TIME =                  293, Read = 0, Write = 0, In = f2
TIME =                  300, Read = 1, Write = 0, In = f2
TIME =                  301, Read = 0, Write = 0, In = f2
TIME =                  308, Read = 1, Write = 0, In = f2
TIME =                  310, Read = 0, Write = 0, In = f2
TIME =                  315, Read = 1, Write = 0, In = f2
TIME =                  320, Read = 0, Write = 0, In = f2
TIME =                  325, Read = 1, Write = 0, In = f2
TIME =                  327, Read = 0, Write = 0, In = f2
TIME =                  335, Read = 1, Write = 0, In = f2
TIME =                  336, Read = 0, Write = 0, In = f2
TIME =                  345, Read = 1, Write = 0, In = f2
TIME =                  346, Read = 0, Write = 0, In = f2
TIME =                  350, Read = 1, Write = 0, In = f2
TIME =                  353, Read = 0, Write = 0, In = f2
TIME =                  360, Read = 1, Write = 0, In = f2
TIME =                  362, Read = 0, Write = 0, In = f2
TIME =                  364, Read = 1, Write = 0, In = f2
TIME =                  366, Read = 0, Write = 0, In = f2
TIME =                  371, Read = 1, Write = 0, In = f2
TIME =                  373, Read = 0, Write = 0, In = f2
TIME =                  380, Read = 1, Write = 0, In = f2
TIME =                  383, Read = 0, Write = 0, In = f2
TIME =                  385, Read = 1, Write = 0, In = f2
TIME =                  388, Read = 0, Write = 0, In = f2
TIME =                  394, Read = 1, Write = 0, In = f2
TIME =                  395, Read = 0, Write = 0, In = f2
TIME =                  398, Read = 1, Write = 0, In = f2
TIME =                  402, Read = 0, Write = 0, In = f2
TIME =                  406, Read = 1, Write = 0, In = f2
TIME =                  411, Read = 0, Write = 0, In = f2
TIME =                  413, Read = 1, Write = 0, In = f2
TIME =                  416, Read = 0, Write = 0, In = f2
-------------- THE SIMUALTION FINISHED ------------
$finish called at time : 5 ns : File "D:/GitHub/VBTech/VBTech/FIFO_2clock/FIFO_2clock.srcs/sim_1/new/testbench.v" Line 209
