VBTech/FIFO/FIFO.sim/sim_1/synth/func/xsim/simulate.log
Vivado Simulator 2019.2
Time resolution is 1 ps
----------------------------------------------
------------------   -----------------------
----------- SIMULATION RESULT ----------------
--------------       -------------------
----------------     ---------------------
----------------------------------------------
TIME =                    0, Read = 0, Write = 0, In = 00
TIME =                    7, Read = 0, Write = 1, In = 24
TIME =                   14, Read = 0, Write = 1, In = 81
TIME =                   18, Read = 0, Write = 1, In = 09
TIME =                   20, Read = 0, Write = 1, In = 63
TIME =                   27, Read = 0, Write = 1, In = 0d
TIME =                   31, Read = 0, Write = 1, In = 8d
TIME =                   34, Read = 0, Write = 1, In = 65
TIME =                   37, Read = 0, Write = 1, In = 12
TIME =                   42, Read = 0, Write = 1, In = 01
TIME =                   50, Read = 0, Write = 1, In = 0d
TIME =                   52, Read = 1, Write = 0, In = 0d
TIME =                   92, Read = 0, Write = 0, In = 0d
TIME =                  104, Read = 0, Write = 1, In = 76
TIME =                  110, Read = 0, Write = 1, In = 3d
TIME =                  114, Read = 0, Write = 1, In = ed
TIME =                  122, Read = 1, Write = 0, In = ed
TIME =                  138, Read = 0, Write = 0, In = ed
TIME =                  139, Read = 0, Write = 1, In = ed
TIME =                  141, Read = 0, Write = 0, In = ed
TIME =                  146, Read = 0, Write = 0, In = 8c
TIME =                  148, Read = 0, Write = 1, In = 8c
TIME =                  150, Read = 0, Write = 0, In = 8c
TIME =                  156, Read = 0, Write = 0, In = f9
TIME =                  157, Read = 0, Write = 1, In = f9
TIME =                  160, Read = 0, Write = 0, In = f9
TIME =                  164, Read = 0, Write = 0, In = c6
TIME =                  167, Read = 0, Write = 1, In = c6
TIME =                  171, Read = 0, Write = 0, In = c6
TIME =                  177, Read = 0, Write = 0, In = c5
TIME =                  181, Read = 0, Write = 1, In = c5
TIME =                  183, Read = 0, Write = 0, In = c5
TIME =                  187, Read = 0, Write = 0, In = aa
TIME =                  190, Read = 0, Write = 1, In = aa
TIME =                  191, Read = 0, Write = 0, In = aa
TIME =                  195, Read = 0, Write = 0, In = e5
TIME =                  199, Read = 0, Write = 1, In = e5
TIME =                  202, Read = 0, Write = 0, In = e5
TIME =                  209, Read = 0, Write = 0, In = 77
TIME =                  213, Read = 0, Write = 1, In = 77
TIME =                  218, Read = 0, Write = 0, In = 77
TIME =                  222, Read = 0, Write = 0, In = 12
TIME =                  225, Read = 0, Write = 1, In = 12
TIME =                  227, Read = 0, Write = 0, In = 12
TIME =                  233, Read = 0, Write = 0, In = 8f
TIME =                  234, Read = 0, Write = 1, In = 8f
TIME =                  237, Read = 0, Write = 0, In = 8f
TIME =                  243, Read = 0, Write = 0, In = f2
TIME =                  251, Read = 1, Write = 0, In = f2
TIME =                  254, Read = 0, Write = 0, In = f2
TIME =                  260, Read = 1, Write = 0, In = f2
TIME =                  261, Read = 0, Write = 0, In = f2
TIME =                  267, Read = 1, Write = 0, In = f2
TIME =                  269, Read = 0, Write = 0, In = f2
TIME =                  274, Read = 1, Write = 0, In = f2
TIME =                  278, Read = 0, Write = 0, In = f2
TIME =                  285, Read = 1, Write = 0, In = f2
TIME =                  289, Read = 0, Write = 0, In = f2
TIME =                  295, Read = 1, Write = 0, In = f2
TIME =                  296, Read = 0, Write = 0, In = f2
TIME =                  302, Read = 1, Write = 0, In = f2
TIME =                  304, Read = 0, Write = 0, In = f2
TIME =                  311, Read = 1, Write = 0, In = f2
TIME =                  316, Read = 0, Write = 0, In = f2
TIME =                  324, Read = 1, Write = 0, In = f2
TIME =                  327, Read = 0, Write = 0, In = f2
TIME =                  334, Read = 1, Write = 0, In = f2
TIME =                  338, Read = 0, Write = 0, In = f2
-------------- THE SIMUALTION FINISHED ------------
$finish called at time : 5 ns : File "D:/GitHub/VBTech/VBTech/FIFO/FIFO.srcs/sim_1/new/testbench.v" Line 146
