VBTech/FIFO_13/FIFO_13.sim/sim_1/behav/xsim/simulate.log
Vivado Simulator 2019.2
Time resolution is 1 ps
----------------------------------------------
------------------   -----------------------
----------- SIMULATION RESULT ----------------
--------------       -------------------
----------------     ---------------------
----------------------------------------------
TIME =                    0, Read = 0, Write = 0, In = 00
TIME =                    6, Read = 0, Write = 1, In = 24
TIME =                    9, Read = 0, Write = 1, In = 81
TIME =                   16, Read = 0, Write = 1, In = 09
TIME =                   20, Read = 0, Write = 1, In = 63
TIME =                   23, Read = 0, Write = 1, In = 0d
TIME =                   30, Read = 0, Write = 1, In = 8d
TIME =                   34, Read = 0, Write = 1, In = 65
TIME =                   37, Read = 0, Write = 1, In = 12
TIME =                   44, Read = 0, Write = 1, In = 01
TIME =                   47, Read = 0, Write = 1, In = 0d
TIME =                   52, Read = 0, Write = 1, In = 76
TIME =                   54, Read = 0, Write = 1, In = 3d
TIME =                   61, Read = 0, Write = 1, In = ed
TIME =                   62, Read = 0, Write = 1, In = 8c
TIME =                   68, Read = 0, Write = 1, In = f9
TIME =                   72, Read = 1, Write = 0, In = f9
TIME =                  121, Read = 0, Write = 0, In = f9
TIME =                  131, Read = 0, Write = 1, In = c6
TIME =                  132, Read = 0, Write = 1, In = c5
TIME =                  135, Read = 0, Write = 1, In = aa
TIME =                  142, Read = 0, Write = 1, In = e5
TIME =                  148, Read = 0, Write = 1, In = 77
TIME =                  154, Read = 0, Write = 1, In = 12
TIME =                  159, Read = 0, Write = 1, In = 8f
TIME =                  167, Read = 1, Write = 0, In = 8f
TIME =                  207, Read = 0, Write = 0, In = 8f
TIME =                  208, Read = 0, Write = 1, In = 8f
TIME =                  210, Read = 0, Write = 0, In = 8f
TIME =                  213, Read = 0, Write = 0, In = f2
TIME =                  215, Read = 0, Write = 1, In = f2
TIME =                  218, Read = 0, Write = 0, In = f2
TIME =                  224, Read = 0, Write = 0, In = ce
TIME =                  227, Read = 0, Write = 1, In = ce
TIME =                  229, Read = 0, Write = 0, In = ce
TIME =                  235, Read = 0, Write = 0, In = e8
TIME =                  239, Read = 0, Write = 1, In = e8
TIME =                  241, Read = 0, Write = 0, In = e8
TIME =                  245, Read = 0, Write = 0, In = c5
TIME =                  248, Read = 0, Write = 1, In = c5
TIME =                  252, Read = 0, Write = 0, In = c5
TIME =                  257, Read = 0, Write = 0, In = 5c
TIME =                  262, Read = 0, Write = 1, In = 5c
TIME =                  266, Read = 0, Write = 0, In = 5c
TIME =                  271, Read = 0, Write = 0, In = bd
TIME =                  276, Read = 0, Write = 1, In = bd
TIME =                  277, Read = 0, Write = 0, In = bd
TIME =                  283, Read = 0, Write = 0, In = 2d
TIME =                  284, Read = 0, Write = 1, In = 2d
TIME =                  287, Read = 0, Write = 0, In = 2d
TIME =                  294, Read = 0, Write = 0, In = 65
TIME =                  298, Read = 0, Write = 1, In = 65
TIME =                  302, Read = 0, Write = 0, In = 65
TIME =                  308, Read = 0, Write = 0, In = 63
TIME =                  309, Read = 0, Write = 1, In = 63
TIME =                  312, Read = 0, Write = 0, In = 63
TIME =                  316, Read = 0, Write = 0, In = 0a
TIME =                  318, Read = 0, Write = 1, In = 0a
TIME =                  320, Read = 0, Write = 0, In = 0a
TIME =                  325, Read = 0, Write = 0, In = 80
TIME =                  329, Read = 0, Write = 1, In = 80
TIME =                  333, Read = 0, Write = 0, In = 80
TIME =                  340, Read = 0, Write = 0, In = 20
TIME =                  341, Read = 0, Write = 1, In = 20
TIME =                  343, Read = 0, Write = 0, In = 20
TIME =                  346, Read = 0, Write = 0, In = aa
TIME =                  348, Read = 0, Write = 1, In = aa
TIME =                  353, Read = 0, Write = 0, In = aa
TIME =                  360, Read = 0, Write = 0, In = 9d
TIME =                  361, Read = 0, Write = 1, In = 9d
TIME =                  364, Read = 0, Write = 0, In = 9d
TIME =                  369, Read = 0, Write = 0, In = 96
TIME =                  381, Read = 1, Write = 0, In = 96
TIME =                  384, Read = 0, Write = 0, In = 96
TIME =                  391, Read = 1, Write = 0, In = 96
TIME =                  395, Read = 0, Write = 0, In = 96
TIME =                  400, Read = 1, Write = 0, In = 96
TIME =                  402, Read = 0, Write = 0, In = 96
TIME =                  409, Read = 1, Write = 0, In = 96
TIME =                  413, Read = 0, Write = 0, In = 96
TIME =                  416, Read = 1, Write = 0, In = 96
TIME =                  420, Read = 0, Write = 0, In = 96
TIME =                  426, Read = 1, Write = 0, In = 96
TIME =                  427, Read = 0, Write = 0, In = 96
TIME =                  433, Read = 1, Write = 0, In = 96
TIME =                  434, Read = 0, Write = 0, In = 96
TIME =                  438, Read = 1, Write = 0, In = 96
TIME =                  440, Read = 0, Write = 0, In = 96
TIME =                  445, Read = 1, Write = 0, In = 96
TIME =                  448, Read = 0, Write = 0, In = 96
TIME =                  454, Read = 1, Write = 0, In = 96
TIME =                  455, Read = 0, Write = 0, In = 96
TIME =                  459, Read = 1, Write = 0, In = 96
TIME =                  463, Read = 0, Write = 0, In = 96
TIME =                  468, Read = 1, Write = 0, In = 96
TIME =                  472, Read = 0, Write = 0, In = 96
TIME =                  477, Read = 1, Write = 0, In = 96
TIME =                  479, Read = 0, Write = 0, In = 96
TIME =                  483, Read = 1, Write = 0, In = 96
TIME =                  486, Read = 0, Write = 0, In = 96
TIME =                  491, Read = 1, Write = 0, In = 96
TIME =                  494, Read = 0, Write = 0, In = 96
-------------- THE SIMUALTION FINISHED ------------
$finish called at time : 5 ns : File "D:/GitHub/VBTech/VBTech/FIFO_13/FIFO_13.srcs/sim_1/new/testbench.v" Line 145
