VBTech/FIFO_13/FIFO_13.sim/sim_1/synth/func/xsim/simulate.log
Vivado Simulator 2019.2
Time resolution is 1 ps
----------------------------------------------
------------------   -----------------------
----------- SIMULATION RESULT ----------------
--------------       -------------------
----------------     ---------------------
----------------------------------------------
TIME =                    0, Read = 0, Write = 0, In = 00
TIME =                    6, Read = 0, Write = 1, In = 24
TIME =                   13, Read = 0, Write = 1, In = 81
TIME =                   17, Read = 0, Write = 1, In = 09
TIME =                   18, Read = 0, Write = 1, In = 63
TIME =                   23, Read = 0, Write = 1, In = 0d
TIME =                   28, Read = 0, Write = 1, In = 8d
TIME =                   35, Read = 0, Write = 1, In = 65
TIME =                   38, Read = 0, Write = 1, In = 12
TIME =                   40, Read = 0, Write = 1, In = 01
TIME =                   42, Read = 0, Write = 1, In = 0d
TIME =                   51, Read = 1, Write = 0, In = 0d
TIME =                   89, Read = 0, Write = 0, In = 0d
TIME =                  100, Read = 0, Write = 1, In = 76
TIME =                  107, Read = 0, Write = 1, In = 3d
TIME =                  113, Read = 0, Write = 1, In = ed
TIME =                  117, Read = 1, Write = 0, In = ed
TIME =                  133, Read = 0, Write = 0, In = ed
TIME =                  135, Read = 0, Write = 1, In = ed
TIME =                  136, Read = 0, Write = 0, In = ed
TIME =                  139, Read = 0, Write = 0, In = 8c
TIME =                  142, Read = 0, Write = 1, In = 8c
TIME =                  145, Read = 0, Write = 0, In = 8c
TIME =                  149, Read = 0, Write = 0, In = f9
TIME =                  152, Read = 0, Write = 1, In = f9
TIME =                  153, Read = 0, Write = 0, In = f9
TIME =                  160, Read = 0, Write = 0, In = c6
TIME =                  163, Read = 0, Write = 1, In = c6
TIME =                  167, Read = 0, Write = 0, In = c6
TIME =                  174, Read = 0, Write = 0, In = c5
TIME =                  175, Read = 0, Write = 1, In = c5
TIME =                  177, Read = 0, Write = 0, In = c5
TIME =                  181, Read = 0, Write = 0, In = aa
TIME =                  182, Read = 0, Write = 1, In = aa
TIME =                  185, Read = 0, Write = 0, In = aa
TIME =                  189, Read = 0, Write = 0, In = e5
TIME =                  194, Read = 0, Write = 1, In = e5
TIME =                  196, Read = 0, Write = 0, In = e5
TIME =                  202, Read = 0, Write = 0, In = 77
TIME =                  206, Read = 0, Write = 1, In = 77
TIME =                  209, Read = 0, Write = 0, In = 77
TIME =                  216, Read = 0, Write = 0, In = 12
TIME =                  219, Read = 0, Write = 1, In = 12
TIME =                  220, Read = 0, Write = 0, In = 12
TIME =                  227, Read = 0, Write = 0, In = 8f
TIME =                  230, Read = 0, Write = 1, In = 8f
TIME =                  233, Read = 0, Write = 0, In = 8f
TIME =                  237, Read = 0, Write = 0, In = f2
TIME =                  247, Read = 1, Write = 0, In = f2
TIME =                  250, Read = 0, Write = 0, In = f2
TIME =                  254, Read = 1, Write = 0, In = f2
TIME =                  255, Read = 0, Write = 0, In = f2
TIME =                  261, Read = 1, Write = 0, In = f2
TIME =                  265, Read = 0, Write = 0, In = f2
TIME =                  271, Read = 1, Write = 0, In = f2
TIME =                  272, Read = 0, Write = 0, In = f2
TIME =                  278, Read = 1, Write = 0, In = f2
TIME =                  279, Read = 0, Write = 0, In = f2
TIME =                  286, Read = 1, Write = 0, In = f2
TIME =                  288, Read = 0, Write = 0, In = f2
TIME =                  295, Read = 1, Write = 0, In = f2
TIME =                  299, Read = 0, Write = 0, In = f2
-------------- THE SIMUALTION FINISHED ------------
$finish called at time : 3 ns : File "D:/GitHub/VBTech/VBTech/FIFO/FIFO.srcs/sim_1/new/testbench.v" Line 144
